{
  "welcomeFile": "uimodule/index.html",
  "authenticationMethod": "route",
  "logout": {
    "logoutEndpoint": "/do/logout"
  },
  "routes": [
    {
      "source": "^/uimodule/(.*)$",
      "target": "$1",
      "authenticationType": "xsuaa",
      "localDir": "uimodule/webapp"
    },
    {
      "source": "^/odata/v4/(.*)$",
      "authenticationType": "xsuaa",
      "destination": "gw_approuter_rl"
    },
    {
      "source": "^/rest/(.*)$",
      "authenticationType": "xsuaa",
      "destination": "gw_approuter_rl"
    },
    {
      "source": "^/odata/v2/(.*)$",
      "authenticationType": "xsuaa",
      "destination": "gw_approuter_rl"
    },
    {
      "source": "^/sap/opu/odata/sap/(.*)$",
      "authenticationType": "xsuaa",
      "destination": "gw_approuter_rl"
    },
    {
      "source": "^/user-api(.*)",
      "target": "$1",
      "service": "sap-approuter-userapi"
    },
    {
      "source": "^/test/(.*)$",
      "authenticationType": "xsuaa",
      "destination": "gw_approuter_rl"
    }
  ]
}